Project 1: Wrangling, Exploration, Visualization
…
fulldata %>% na.omit() %>% group_by(PROPRIETARYNAME) %>% summarize(max = max(Tot.Spndng)) %>% 
    arrange(desc(max))

## # A tibble: 1,368 x 2
##    PROPRIETARYNAME         max
##    <chr>                 <dbl>
##  1 Harvoni         2220257430 
##  2 Latuda          1308504610 
##  3 Vyvanse         1018112740 
##  4 Epclusa          932270384.
##  5 Genvoya          915713506.
##  6 Suboxone         790784304.
##  7 Lantus           789788500.
##  8 Truvada          764516610.
##  9 Lantus Solostar  764297196.
## 10 Aripiprazole     678497420.
## #  with 1,358 more rows
…
